%YAML 1.1
%TAG !u! tag:unity3d.com,2011:
--- !u!1045 &1
EditorBuildSettings:
  m_ObjectHideFlags: 0
  serializedVersion: 2
  m_Scenes:
  - enabled: 1
    path: Assets/Prologue.unity
    guid: b780c417efcd530489d6935270905a05
  - enabled: 1
    path: Assets/MenuScene.unity
    guid: edf3c759f5cc3c94e96c5ffa9aae3f84
  - enabled: 1
    path: Assets/LevelStandard.unity
    guid: f321bc8d1832d4a4ba5298f7c91296c8
  - enabled: 1
    path: Assets/LevelDarkness.unity
    guid: 425ff6cc676af07409d6a137498bd9ee
  - enabled: 1
    path: Assets/ScoreScene.unity
    guid: e7d0bde66e44dfc40b6f0a2f822947cc
  - enabled: 1
    path: Assets/Credits.unity
    guid: 9278245572549c746b68503b8180448c
  - enabled: 1
    path: Assets/LevelEndless.unity
    guid: c02e7229b2f94af4ab2ba91c05de9b15
  m_configObjects: {}
